15:32:11	 De  Homero Orlando : pulgar arriba
15:35:11	 De  Homero Orlando : power explanation
15:35:20	 De  Nicolas Diaz : xd
15:37:21	 De  Pablo Imig : hasta luego, nos vemos
15:37:22	 De  Homero Orlando : Pefecto
15:37:29	 De  Nicolas Diaz : igualmente profa hasta la prox
