15:29:12	 De  Tiago Gabriel Romanelli : Romanelli Tiago
15:29:14	 De  Franco Manente : Manente, Franco
15:29:17	 De  German Reimers : Reimers German
15:29:19	 De  Tomás Virbales : Virbales Tomás 
15:29:19	 De  emanuel rodriguez : Rodriguez Emanuel
15:29:19	 De  nicolas celso : Celso Nicolas
15:29:20	 De  jonathan corrosa : corrosa Jonathan
15:29:22	 De  Nicolas Diaz : Nicolas Diaz
15:29:23	 De  Pablo Imig : Imig, Pablo Tomás
15:29:23	 De  nicolas celso : Sena Franco
15:29:30	 De  Nicolas Diaz : Lara Cornaglia
15:29:32	 De  Facundo Paz Curtet : Paz Curtet Facundo
15:29:33	 De  jonathan corrosa : argañaraz Manuel juarez tomas
15:29:37	 De  jonathan corrosa : leal Francisco
15:29:39	 De  jonathan corrosa : en el aula
15:29:47	 De  Maximo Camacho : Máximo Camacho
15:32:37	 De  Dana Ailin : arrosogaray dana
15:32:46	 De  Homero (Orlando) : Orlando Homero
15:33:58	 De  Maximo Camacho : profe esto esta grabado
15:34:02	 De  Maximo Camacho : ojo con esto
15:34:12	 De  Homero (Orlando) : claro claro
15:34:41	 De  Maximo Camacho : vecino, tengo un chancho muerto en el techo eso es de usted?
15:36:42	 De  Homero (Orlando) : Que hacia el Data Scientist?
15:36:58	 De  Homero (Orlando) : bruh
15:37:34	 De  German Reimers : bruh moment
15:39:51	 De  De Carlos Federica : Tomó lista?
15:39:59	 De  De Carlos Federica :  Buenas tardes
15:39:59	 De  Maximo Camacho : tenes que poner tu nombre
15:40:16	 De  De Carlos Federica : Lo sé Matsi
15:40:32	 De  Maximo Camacho : Bueno Lea
15:40:57	 De  De Carlos Federica : De Carlos Lea Federica
15:43:20	 De  Maximo Camacho : cantida
15:43:45	 De  Homero (Orlando) : isAleta
15:48:03	 De  Homero (Orlando) : 69
15:48:12	 De  Maximo Camacho : :0
15:48:13	 De  Maximo Camacho : sus
15:49:57	 De  Homero (Orlando) : esta bien
15:50:01	 De  Homero (Orlando) : da bien
15:54:16	 De  Homero (Orlando) : la vida es una fiesta
15:58:48	 De  Homero (Orlando) : exelente servicio
16:01:10	 De  Baliner Ivan : Baliner Ivan
16:01:19	 De  Baliner Ivan : Perdone la tardanza profe
16:01:53	 De  Homero (Orlando) : adios
16:01:58	 De  Pablo Imig : hasta luego!
